…
``` r
nhanes_daylong = nhanes_clean |>
  pivot_longer(
    cols = starts_with("min"),
    names_to = "minute",
    values_to = "activity"
  ) |>
  mutate(
    minute = as.numeric(gsub("min", "", minute)),   
    hour = minute / 60                             
  )
nhanes_daylong
```

    ## # A tibble: 328,320 × 8
    ##     seqn sex     age   bmi education              minute activity   hour
    ##    <dbl> <fct> <dbl> <dbl> <fct>                   <dbl>    <dbl>  <dbl>
    ##  1 62161 Male     22  23.3 High school equivalent      1    1.11  0.0167
    ##  2 62161 Male     22  23.3 High school equivalent      2    3.12  0.0333
    ##  3 62161 Male     22  23.3 High school equivalent      3    1.47  0.05  
    ##  4 62161 Male     22  23.3 High school equivalent      4    0.938 0.0667
    ##  5 62161 Male     22  23.3 High school equivalent      5    1.60  0.0833
    ##  6 62161 Male     22  23.3 High school equivalent      6    0.145 0.1   
    ##  7 62161 Male     22  23.3 High school equivalent      7    2.10  0.117 
    ##  8 62161 Male     22  23.3 High school equivalent      8    0.509 0.133 
    ##  9 62161 Male     22  23.3 High school equivalent      9    1.63  0.15  
    ## 10 62161 Male     22  23.3 High school equivalent     10    1.20  0.167 
    ## # ℹ 328,310 more rows
…
